<svg class="svg-people-icon" xmlns="http://www.w3.org/2000/svg" viewBox="0 0 99.4 99.4">
  <path class="st0" d="M49.7 99.4C22.3 99.4 0 77.1 0 49.7 0 22.3 22.3 0 49.7 0c27.4 0 49.7 22.3 49.7 49.7 0 27.4-22.3 49.7-49.7 49.7zm0-93.7c-24.3 0-44 19.7-44 44s19.7 44 44 44 44-19.7 44-44-19.7-44-44-44zm0 0"/>
  <path class="st0 horizontal" d="M69.3 52.5H30.1c-1.6 0-2.8-1.3-2.8-2.8 0-1.6 1.3-2.8 2.8-2.8h39.2c1.6 0 2.8 1.3 2.8 2.8 0 1.6-1.2 2.8-2.8 2.8zm0 0"/>
  <path class="st0 vertical" d="M49.7 72.1c-1.6 0-2.8-1.3-2.8-2.8V30.1c0-1.6 1.3-2.8 2.8-2.8 1.6 0 2.8 1.3 2.8 2.8v39.2c0 1.6-1.2 2.8-2.8 2.8zm0 0"/>
</svg>
