<?xml version="1.0" encoding="utf-8"?>
<!-- Generator: Adobe Illustrator 23.0.1, SVG Export Plug-In . SVG Version: 6.00 Build 0)  -->
<svg version="1.1" id="Layer_1" xmlns="http://www.w3.org/2000/svg" xmlns:xlink="http://www.w3.org/1999/xlink" x="0px" y="0px"
	 viewBox="0 0 139.52 110.48" style="enable-background:new 0 0 139.52 110.48;" xml:space="preserve">
<style type="text/css">
	.st0{fill:#231F20;}
</style>
<path class="st0" d="M22.3,67.8c0,0,8.01,5.07,15.61,17.03l4.55,8.63l2.14,4.49c-0.28-0.7-0.57-1.38-0.86-2.05l2.58,4.89L68.38,79.5
	c8.48-6.68,13.28-6.46,13.28-6.46c1.03-5.45,6.26-11.94,10.15-16.15l5.27-5.09c15.31,17.12,26.09,9.73,26.8,5.35
	c0.05-0.32,0.08-0.64,0.1-0.94c13.95-3.1,11.18-15.37,5.92-16.5c-4.17-0.9-6.45,2.26-6.45,2.26s-1.61,1.71-0.16,0.39
	c1.44-1.32,4.02-2,6.62-0.24c2.76,1.88,3.01,10.07-6.04,12.41c-0.56-2.81-2.93-4.38-5.75-4.47c-3.61-0.12-4.38,2.16-4.38,2.16
	c2.77-2.3,6.5-0.01,7.33,2.8c-1.35,0.14-2.84,0.18-4.51,0.08c-11.06-0.65-16.89-6.36-19.51-9.99l-1.76-2.94
	c-0.01-0.02-0.03-0.06-0.03-0.06l0.01,0.03l-12.8-21.46l-47.96-9.17L10.23,32.37l9.82,18.61C21.81,56.53,23.05,62.68,22.3,67.8z
	 M98.49,50.46c6.25,6.14,17.1,6.46,17.1,6.46c2.07,0.05,3.93-0.03,5.61-0.23c-0.21,1.37-1.25,2.69-3.56,3.48
	c-8.06,2.77-18.42-8.75-18.42-8.75l-0.77-0.91L98.49,50.46z M44.71,72.57c-0.99-12.74,0.78-15,0.78-15
	c-2.9-4.2-4.71-13.99-5.2-16.85l-0.1-0.7l28.9,5.53L47.51,92.72L44.71,72.57z M51.81,90.95l4.35-9.5l0.01,0.06
	c0.16-0.37,0.31-0.73,0.46-1.08l3.39-7.4c4.84-9.69,7.41-10.77,7.41-10.77c-0.01-3.06,0.86-6.53,1.82-9.42l3.06-6.68l21.65,4.14
	L51.81,90.95z M94.4,46.94l-20.64-3.95l7.94-17.35L94.4,46.94z M79.18,23.5l-7.88,17.21L61.18,20.06L79.18,23.5z M68.38,41.97
	l-26.57-5.08l16-16.47L68.38,41.97z M54.8,18.84l-15.35,15.8l-2.67-19.25L54.8,18.84z M33.77,16.46l2.69,19.4l-20.67-3.95
	L33.77,16.46z M36.95,39.4l6.92,49.9L15.36,35.27L36.95,39.4z"/>
</svg>
